…
## `summarise()` has grouped output by 'Country', 'Year'. You can override using the `.groups` argument.

# Joining the two data frames for easy comparisons based on country and year
tidy_GDP_data_comparison <- left_join(tidy_GDP_data_2, tidy_GDP_data_1, 
                                      by= (c("Country"="Country", "Year"="Year"))) %>%
  # Calculating the percentage difference between the given GDP and the calculated GDP
  mutate(percentage_diff = (((GDP_data-sum_GDP_data)/sum_GDP_data))*100)

# Printing the result
tidy_GDP_data_comparison

## # A tibble: 51,120 × 5
## # Groups:   Country, Year [10,560]
##    Country     Year  sum_GDP_data GDP_data percentage_diff
##    <chr>       <chr>        <dbl>    <dbl>           <dbl>
##  1 Afghanistan 1970            NA     10.5              NA
##  2 Afghanistan 1970            NA     10.5              NA
##  3 Afghanistan 1970            NA     10.5              NA
##  4 Afghanistan 1970            NA     10.5              NA
##  5 Afghanistan 1970            NA     10.5              NA
##  6 Afghanistan 1971            NA     10.4              NA
##  7 Afghanistan 1971            NA     10.4              NA
##  8 Afghanistan 1971            NA     10.4              NA
##  9 Afghanistan 1971            NA     10.4              NA
## 10 Afghanistan 1971            NA     10.4              NA
## # … with 51,110 more rows
…
